\relax 
\providecommand\hyper@newdestlabel[2]{}
\providecommand\HyperFirstAtBeginDocument{\AtBeginDocument}
\HyperFirstAtBeginDocument{\ifx\hyper@anchor\@undefined
\global\let\oldcontentsline\contentsline
\gdef\contentsline#1#2#3#4{\oldcontentsline{#1}{#2}{#3}}
\global\let\oldnewlabel\newlabel
\gdef\newlabel#1#2{\newlabelxx{#1}#2}
\gdef\newlabelxx#1#2#3#4#5#6{\oldnewlabel{#1}{{#2}{#3}}}
\AtEndDocument{\ifx\hyper@anchor\@undefined
\let\contentsline\oldcontentsline
\let\newlabel\oldnewlabel
\fi}
\fi}
\global\let\hyper@last\relax 
\gdef\HyperFirstAtBeginDocument#1{#1}
\providecommand\HyField@AuxAddToFields[1]{}
\providecommand\HyField@AuxAddToCoFields[2]{}
\@writefile{toc}{\contentsline {section}{\numberline {1}Experiment}{1}{section.1}}
\@writefile{toc}{\contentsline {subsection}{\numberline {1.1}Input Domain, Failure Region and Failure Rate}{1}{subsection.1.1}}
\@writefile{toc}{\contentsline {subsection}{\numberline {1.2}Random Testing Details}{1}{subsection.1.2}}
\@writefile{toc}{\contentsline {subsection}{\numberline {1.3}Selected Regions}{2}{subsection.1.3}}
\@writefile{toc}{\contentsline {subsubsection}{\numberline {1.3.1}Faulty Program 1}{2}{subsubsection.1.3.1}}
\@writefile{toc}{\contentsline {subsubsection}{\numberline {1.3.2}Faulty Program 2}{2}{subsubsection.1.3.2}}
\@writefile{toc}{\contentsline {subsubsection}{\numberline {1.3.3}Faulty Program 3}{2}{subsubsection.1.3.3}}
\@writefile{toc}{\contentsline {subsection}{\numberline {1.4}Test functions}{2}{subsection.1.4}}
\gdef \LT@i {\LT@entry 
    {1}{95.64946pt}\LT@entry 
    {1}{346.60425pt}}
\gdef \LT@ii {\LT@entry 
    {1}{95.64946pt}\LT@entry 
    {1}{346.60425pt}}
\@writefile{toc}{\contentsline {section}{\numberline {2}Program}{3}{section.2}}
\@writefile{toc}{\contentsline {subsection}{\numberline {2.1}Structure}{3}{subsection.2.1}}
\@writefile{toc}{\contentsline {subsubsection}{\numberline {2.1.1}Programs Package}{3}{subsubsection.2.1.1}}
\@writefile{toc}{\contentsline {subsubsection}{\numberline {2.1.2}Test Package}{3}{subsubsection.2.1.2}}
\@writefile{toc}{\contentsline {subsection}{\numberline {2.2}Execution Instructions}{4}{subsection.2.2}}
\@writefile{toc}{\contentsline {section}{\numberline {3}Results}{4}{section.3}}
\@writefile{toc}{\contentsline {subsection}{\numberline {3.1}Measures}{4}{subsection.3.1}}
\@writefile{toc}{\contentsline {subsubsection}{\numberline {3.1.1}Mutant Program 1}{4}{subsubsection.3.1.1}}
\@writefile{toc}{\contentsline {subsubsection}{\numberline {3.1.2}Mutant Program 2}{5}{subsubsection.3.1.2}}
\@writefile{toc}{\contentsline {subsubsection}{\numberline {3.1.3}Mutant Program 3}{5}{subsubsection.3.1.3}}
\@writefile{toc}{\contentsline {subsection}{\numberline {3.2}Raw Results}{5}{subsection.3.2}}
\gdef \LT@iii {\LT@entry 
    {1}{95.64946pt}\LT@entry 
    {1}{304.77632pt}}
\@writefile{toc}{\contentsline {subsection}{\numberline {3.3}Comments}{6}{subsection.3.3}}
\@writefile{toc}{\contentsline {subsection}{\numberline {3.4}Analysis}{6}{subsection.3.4}}
\@writefile{toc}{\contentsline {section}{\numberline {4}Source Code}{7}{section.4}}
\@writefile{toc}{\contentsline {subsection}{\numberline {4.1}Original Program}{7}{subsection.4.1}}
\@writefile{toc}{\contentsline {subsection}{\numberline {4.2}Faulty1 Program}{7}{subsection.4.2}}
\@writefile{toc}{\contentsline {subsection}{\numberline {4.3}Faulty2 Program}{8}{subsection.4.3}}
\@writefile{toc}{\contentsline {subsection}{\numberline {4.4}Faulty3 Program}{8}{subsection.4.4}}
\@writefile{toc}{\contentsline {subsection}{\numberline {4.5}Constants}{9}{subsection.4.5}}
\@writefile{toc}{\contentsline {subsection}{\numberline {4.6}Point2D}{10}{subsection.4.6}}
\@writefile{toc}{\contentsline {subsection}{\numberline {4.7}test\_all.py}{11}{subsection.4.7}}
\@writefile{toc}{\contentsline {subsection}{\numberline {4.8}ART}{13}{subsection.4.8}}
\@writefile{toc}{\contentsline {subsection}{\numberline {4.9}RT}{15}{subsection.4.9}}
\@writefile{toc}{\contentsline {section}{\numberline {5}References}{16}{section.5}}
