\relax 
\providecommand\hyper@newdestlabel[2]{}
\providecommand\HyperFirstAtBeginDocument{\AtBeginDocument}
\HyperFirstAtBeginDocument{\ifx\hyper@anchor\@undefined
\global\let\oldcontentsline\contentsline
\gdef\contentsline#1#2#3#4{\oldcontentsline{#1}{#2}{#3}}
\global\let\oldnewlabel\newlabel
\gdef\newlabel#1#2{\newlabelxx{#1}#2}
\gdef\newlabelxx#1#2#3#4#5#6{\oldnewlabel{#1}{{#2}{#3}}}
\AtEndDocument{\ifx\hyper@anchor\@undefined
\let\contentsline\oldcontentsline
\let\newlabel\oldnewlabel
\fi}
\fi}
\global\let\hyper@last\relax 
\gdef\HyperFirstAtBeginDocument#1{#1}
\providecommand\HyField@AuxAddToFields[1]{}
\providecommand\HyField@AuxAddToCoFields[2]{}
\@writefile{toc}{\contentsline {section}{\numberline {1}Experiment}{1}{section.1}}
\@writefile{toc}{\contentsline {subsection}{\numberline {1.1}Input Domain, Failure Region and Failure Rate}{1}{subsection.1.1}}
\@writefile{toc}{\contentsline {subsection}{\numberline {1.2}Selected Regions}{1}{subsection.1.2}}
\gdef \LT@i {\LT@entry 
    {1}{137.47739pt}\LT@entry 
    {1}{304.77632pt}}
\@writefile{toc}{\contentsline {subsection}{\numberline {1.3}Test function}{2}{subsection.1.3}}
\@writefile{toc}{\contentsline {section}{\numberline {2}Program}{2}{section.2}}
\@writefile{toc}{\contentsline {subsection}{\numberline {2.1}Structure}{2}{subsection.2.1}}
\@writefile{toc}{\contentsline {subsection}{\numberline {2.2}Execution Instructions}{3}{subsection.2.2}}
\@writefile{toc}{\contentsline {section}{\numberline {3}Results}{3}{section.3}}
\@writefile{toc}{\contentsline {subsection}{\numberline {3.1}Measures}{3}{subsection.3.1}}
\@writefile{toc}{\contentsline {subsection}{\numberline {3.2}Charts}{4}{subsection.3.2}}
\@writefile{toc}{\contentsline {subsection}{\numberline {3.3}Comments}{4}{subsection.3.3}}
\@writefile{toc}{\contentsline {subsection}{\numberline {3.4}Analysis}{5}{subsection.3.4}}
\@writefile{toc}{\contentsline {section}{\numberline {4}Source Code}{6}{section.4}}
\@writefile{toc}{\contentsline {section}{\numberline {5}References}{18}{section.5}}
